…
bulk_url <- "https://spoonacular-recipe-food-nutrition-v1.p.rapidapi.com/recipes/informationBulk"
queryString <- list(ids = id_list)
bulk_search <- VERB("GET", bulk_url, add_headers('X-RapidAPI-Key' = '73a2057416msh633772bf8275edfp1b3775jsn7e44cc5cb98d', 'X-RapidAPI-Host' = 'spoonacular-recipe-food-nutrition-v1.p.rapidapi.com'), query = queryString, content_type("application/octet-stream"))
  parsed_bulk_search <- fromJSON(rawToChar(bulk_search$content))
  results_df <- as_tibble(parsed_bulk_search) %>% select(id, title, glutenFree, dairyFree, vegetarian, aggregateLikes, healthScore, weightWatcherSmartPoints, sourceName, pricePerServing, readyInMinutes)
  combined_results <- results_df %>% mutate(WW_category = if_else(weightWatcherSmartPoints <10, 1, if_else(weightWatcherSmartPoints <20, 2, 3))) 
  factor(combined_results$WW_category, levels = c(1, 2, 3), labels = c("low", "medium", "high"))
return(combined_results)
}
#Run a test
ingredient_test <- ingredient_search(ingredient="cherry", number=50)
ingredient_test
```

    ## # A tibble: 50 × 12
    ##         id title      glutenFree dairyFree vegetarian aggregateLikes healthScore
    ##      <int> <chr>      <lgl>      <lgl>     <lgl>               <int>       <int>
    ##  1  799316 Black Che… TRUE       TRUE      FALSE                  10           0
    ##  2   50161 Jell-o Mo… TRUE       FALSE     TRUE                    1           2
    ##  3  779475 Black Che… TRUE       TRUE      TRUE                  167           0
    ##  4   50105 Cherry Mo… TRUE       TRUE      TRUE                   37           1
    ##  5   52755 Yellow Ch… TRUE       TRUE      TRUE                   26           2
    ##  6 1065961 Cherry Pr… TRUE       TRUE      TRUE                    1           7
    ##  7  405122 Bing Cher… TRUE       FALSE     TRUE                    0           2
    ##  8  525223 Dark Choc… FALSE      TRUE      FALSE               26141           3
    ##  9  524954 Root Beer… TRUE       TRUE      FALSE                2592           1
    ## 10  539027 Quick and… TRUE       FALSE     TRUE                 1491           5
    ## # … with 40 more rows, and 5 more variables: weightWatcherSmartPoints <int>,
    ## #   sourceName <chr>, pricePerServing <dbl>, readyInMinutes <int>,
    ## #   WW_category <dbl>
…
  bulk_url <- "https://spoonacular-recipe-food-nutrition-v1.p.rapidapi.com/recipes/informationBulk"
queryString <- list(ids = id_list)
bulk_search <- VERB("GET", bulk_url, add_headers('X-RapidAPI-Key' = '73a2057416msh633772bf8275edfp1b3775jsn7e44cc5cb98d', 'X-RapidAPI-Host' = 'spoonacular-recipe-food-nutrition-v1.p.rapidapi.com'), query = queryString, content_type("application/octet-stream"))
  parsed_bulk_search <- fromJSON(rawToChar(bulk_search$content))
  results_df <- as_tibble(parsed_bulk_search) %>% select(id, title, glutenFree, dairyFree, vegetarian, aggregateLikes, healthScore, weightWatcherSmartPoints, sourceName, pricePerServing, readyInMinutes)
  results_df <- results_df %>% mutate(WW_category = if_else(weightWatcherSmartPoints <10, 1, if_else(weightWatcherSmartPoints <20, 2, 3))) 
  factor(results_df$WW_category, levels = c(1, 2, 3), labels = c("low", "medium", "high"))
  combined_results <- as_tibble(c(results_df, parsed_search_result[,3:8]))
  return(combined_results)
}
calorie_test <- calorie_search(calories_from= 100, calories_to = 500, number=50)
calorie_test
```

    ## # A tibble: 50 × 18
    ##        id title       glutenFree dairyFree vegetarian aggregateLikes healthScore
    ##     <int> <chr>       <lgl>      <lgl>     <lgl>               <int>       <int>
    ##  1  17281 Spicy Tuna… TRUE       TRUE      FALSE                   5          71
    ##  2  30338 Spanish-St… TRUE       TRUE      FALSE                   0         100
    ##  3  51843 Lemon-blue… FALSE      FALSE     TRUE                   25           2
    ##  4  58965 Mango & Ra… FALSE      FALSE     TRUE                   30           1
    ##  5  66226 Grapefruit… FALSE      FALSE     TRUE                    0           0
    ##  6  70450 Apple Pie … TRUE       FALSE     FALSE                 668           1
    ##  7  90629 Baked Appl… TRUE       FALSE     TRUE                    0           0
    ##  8  94853 Cantaloupe… TRUE       FALSE     TRUE                    0          22
    ##  9 105012 Grilled Zu… TRUE       FALSE     FALSE                   1          11
    ## 10 109236 Baby Artic… TRUE       TRUE      FALSE                   0           5
    ## # … with 40 more rows, and 11 more variables: weightWatcherSmartPoints <int>,
    ## #   sourceName <chr>, pricePerServing <dbl>, readyInMinutes <int>,
    ## #   WW_category <dbl>, image <chr>, imageType <chr>, calories <int>,
    ## #   protein <chr>, fat <chr>, carbs <chr>
…
``` r
cal_prot_test <- search_by_2_nutrs(first_nutrient="Calories", first_from=0, first_to=1500,
                                  sec_nutrient="Protein", sec_from=30, sec_to=100, number=100)
```

    ## No encoding supplied: defaulting to UTF-8.

``` r
cal_prot_test$protein <- as.numeric(substr(cal_prot_test$protein,1, nchar(cal_prot_test$protein)-1))
cal_prot_test$fat <- as.numeric(substr(cal_prot_test$fat,1, nchar(cal_prot_test$fat)-1))
cal_prot_test$carbs <- as.numeric(substr(cal_prot_test$carbs,1, nchar(cal_prot_test$carbs)-1))
cal_prot_test
```

    ## # A tibble: 100 × 6
    ##        id title                                     calories protein   fat carbs
    ##     <int> <chr>                                        <int>   <dbl> <dbl> <dbl>
    ##  1  32579 Tuna Spaghetti With Fava Beans                 721      44    28    78
    ##  2 511728 Pasta Margherita                               809      34    34    90
    ##  3 631754 Lemony Zucchini Fritters                       473      30    24    36
    ##  4 631912 A Post Thanksgiving “sopa De Tortilla”         444      36    26    19
    ##  5 632300 Amazing Chicken Burgers                        361      32    18    17
    ##  6 632822 Asian Coleslaw with Baked Salmon               508      40    27    32
    ##  7 633088 Authentic Jamaican Curry Chicken               547      69    19    25
    ##  8 633352 Bacon Wrapped Tofu Tacos                       580      30    36    33
    ##  9 633624 Baked Fried Chicken With Cauliflower Mash      662      66    29    33
    ## 10 633754 Baked Ratatouille                             1028      32    69    82
    ## # … with 90 more rows
…
``` r
cal_prot_test <- cal_prot_test %>% 
  arrange(calories) %>% 
  mutate(calorie_level = ifelse(cal_prot_test$calories >= 800, "3",
                              ifelse(cal_prot_test$calories >= 400, "2",
                                     ifelse(cal_prot_test$calories >= 0, "1"))),
         calorie_level = factor(calorie_level,
                              level = c(1,2,3),
                              labels = c("low","medium","high")))

cal_prot_test <- cal_prot_test %>% select(calorie_level, calories, protein, fat, carbs, title)
cal_prot_test
```

    ## # A tibble: 100 × 6
    ##    calorie_level calories protein   fat carbs title                             
    ##    <fct>            <int>   <dbl> <dbl> <dbl> <chr>                             
    ##  1 medium             214      32     6     7 Steamed Plaice & Spinach Rolls    
    ##  2 high               217      32     7     3 Mahi-Mahi With Lemon Caper Sauce  
    ##  3 medium             233      44     5     2 Steamed Halibut                   
    ##  4 medium             243      33     4    16 Brined Chicken Breast with Sautée…
    ##  5 low                294      30    11    17 Grilled Buffalo Chicken Wraps     
    ##  6 medium             337      36    12    23 Spice-Rubbed Lemon Barbecue Salmon
    ##  7 medium             340      38    11    22 Thai Street Vendor Salmon Skewers 
    ##  8 medium             343      36    17    12 Blood Orange Sesame Salmon        
    ##  9 medium             347      52     6    18 Chicken Fingers                   
    ## 10 high               351      31    15    27 Gluten Free Dairy Free Sugar Free…
    ## # … with 90 more rows
…
cal_prot_test <- cal_prot_test %>% arrange(carbs) %>%          
  mutate(carb_level = ifelse(cal_prot_test$carbs >= 80, "3",
                              ifelse(cal_prot_test$carbs >= 40, "2",
                                     ifelse(cal_prot_test$carbs >= 0, "1"))),
         carb_level = factor(carb_level,
                              level = c(1,2,3),
                              labels = c("low","medium","high")))

cal_prot_test <- cal_prot_test %>% 
  select(calorie_level, calories, fat_level, fat, carb_level, carbs, protein, title)
cal_prot_test
```

    ## # A tibble: 100 × 8
    ##    calorie_level calories fat_level   fat carb_level carbs protein title        
    ##    <fct>            <int> <fct>     <dbl> <fct>      <dbl>   <dbl> <chr>        
    ##  1 medium             891 medium       65 medium         0      71 Instant Pot …
    ##  2 high               417 low          30 low            1      35 Cheese Pork …
    ##  3 medium             233 low           5 low            2      44 Steamed Hali…
    ##  4 high               217 low           7 medium         3      32 Mahi-Mahi Wi…
    ##  5 low                388 low          20 low            3      48 Grilled Lemo…
    ##  6 low                399 low           4 medium         5      81 Super Easy O…
    ##  7 medium             454 medium       33 low            5      33 Fragrant Cur…
    ##  8 medium             619 low          49 low            5      35 Pan-Roasted …
    ##  9 medium             426 low          31 low            6      31 Easy Slow Co…
    ## 10 medium             214 low           6 medium         7      32 Steamed Plai…
    ## # … with 90 more rows
…
