…
# for a certain range calories, to compare protein/carbs/fat with calories, find which one the more related to calories.
cal_data <- search_by_nutr(nutrient="Calories", from=1000, to=2500, number=100)

cal_data$protein <- as.numeric(substr(cal_data$protein,1, nchar(cal_data$protein)-1))
cal_data$fat <- as.numeric(substr(cal_data$fat,1, nchar(cal_data$fat)-1))
cal_data$carbs <- as.numeric(substr(cal_data$carbs,1, nchar(cal_data$carbs)-1))

cal_data

## # A tibble: 48 × 6
##        id title                                 calories protein   fat carbs
##     <int> <chr>                                    <int>   <dbl> <dbl> <dbl>
##  1  31237 Black Eyed Peas With Ham Hocks            1073      86    61    41
##  2 157399 Crispy-Crowned Guacamole Fish Fillets     1026      77    57    63
##  3 157426 Stuffed Shells with Beef and Broc         1192      56    72    81
##  4 622825 Tortilla Burger Loco Vaca                 1159      54    86    42
##  5 631814 $50,000 Burger                            1075      75    69    42
##  6 631868 4 Ingredient Chicken Pot Pie              1053      89    35    90
##  7 633538 Baked Chicken with Cinnamon Apples        1222      72    85    32
##  8 633661 Baked Lasagne                             1215      65    64    97
##  9 633754 Baked Ratatouille                         1028      32    69    82
## 10 633841 Baked Teriyaki Chicken Drumsticks         1093      99    46    65
## # … with 38 more rows
…
